INDEX VERSION 1.130+/home/egil/NetBeansProjects/Unicenta432-pa/unicentaopos432-pa/src/main/resources/com/openbravo/reports/.metadata/.plugins/org.eclipse.jdt.core
2615459037.index
4237206867.index
1414942381.index
631377477.index
183535522.index
2298305923.index
3627328399.index
2970146343.index
2599817430.index
599952055.index
1657806695.index
2336408704.index
2515368138.index
252057853.index
3765020915.index
2115142859.index
1552948273.index
3878307495.index
